环境暴露的人群健康效应的研究、写作与发表 - 环境暴露评估
…
双线性插值

pacman::p_load(dplyr, raster, data.table, arrow, ggplot2, lubridate)

exposure = read_parquet('Data/exposure_grids.parquet', as_data_frame = T) %>% 
  mutate(longitude = round(longitude, 2),
         latitude = round(latitude, 2))

exposure

# A tibble: 252 × 9
   longitude latitude date       PM2.5   SO4   NO3   NH4    OM    BC
       <dbl>    <dbl> <date>     <dbl> <dbl> <dbl> <dbl> <dbl> <dbl>
 1      110.     22.0 2014-01-01   120  21.1  31.1  20.3  31.9  5.95
 2      110.     22.0 2014-01-02   123  26.2  29.5  24.0  29.0  5.01
 3      110.     22.0 2014-01-03   128  30.3  28.5  23.7  30.2  5.70
 4      110.     22.0 2014-01-04   138  23.5  29.9  22.7  43.1  8.82
 5      110.     22.0 2014-01-05   142  24.6  32.0  23.0  43.0  8.15
 6      110.     22.0 2014-01-06   108  25.8  17.4  15.8  32.7  6.57
 7      110.     22.0 2014-01-07    79  18.9  11.0  10.6  25.0  5.75
 8      110.     22.0 2014-01-01   119  21.2  30.8  20.0  31.5  5.92
 9      110.     22.0 2014-01-02   122  25.6  29.4  24.2  28.7  5.02
10      110.     22.0 2014-01-03   117  27.7  25.9  22.0  27.4  5.13
# ℹ 242 more rows
…
