环境暴露的人群健康效应的研究、写作与发表 - 时间序列研究
…
设置各个城市的观测时长的自由度

city_obs_length = ts_city %>% 
  group_by(City) %>% 
  summarise(admit_date_min = min(admit_date),
            admit_date_max = max(admit_date),
            obs_length = as.integer(max(admit_date) - min(admit_date))/365,
            df = round(obs_length)*4) %>% 
  ungroup()

city_obs_length

# A tibble: 21 × 5
   City    admit_date_min admit_date_max obs_length    df
   <chr>   <date>         <date>              <dbl> <dbl>
 1 city_01 2014-01-01     2016-12-30           3.00    12
 2 city_02 2014-01-01     2016-12-30           3.00    12
 3 city_03 2014-01-01     2016-12-30           3.00    12
 4 city_04 2014-01-01     2016-12-30           3.00    12
 5 city_05 2014-01-01     2016-12-30           3.00    12
 6 city_06 2014-01-01     2016-12-30           3.00    12
 7 city_07 2014-01-01     2016-12-30           3.00    12
 8 city_08 2014-01-01     2016-12-30           3.00    12
 9 city_09 2014-01-01     2016-12-29           2.99    12
10 city_10 2014-01-01     2016-12-30           3.00    12
# ℹ 11 more rows

分城市进行建模

models_city = ts_city %>% 
  mutate(across(PM2.5_MA_07:BC_MA_07, ~.x/IQR(.x))) %>% 
  group_by(City) %>% 
  nest() %>%
  left_join(city_obs_length %>% 
              dplyr::select(City, df),
            by = 'City') %>% 
  mutate(models = map2(data, df, map_city, y = 'N'))

models_city

# A tibble: 21 × 4
# Groups:   City [21]
   City    data                     df models      
   <chr>   <list>                <dbl> <list>      
 1 city_01 <tibble [1,095 × 12]>    12 <dt [6 × 8]>
 2 city_02 <tibble [1,095 × 12]>    12 <dt [6 × 8]>
 3 city_03 <tibble [1,095 × 12]>    12 <dt [6 × 8]>
 4 city_04 <tibble [1,095 × 12]>    12 <dt [6 × 8]>
 5 city_05 <tibble [1,095 × 12]>    12 <dt [6 × 8]>
 6 city_06 <tibble [1,095 × 12]>    12 <dt [6 × 8]>
 7 city_07 <tibble [1,095 × 12]>    12 <dt [6 × 8]>
 8 city_08 <tibble [1,095 × 12]>    12 <dt [6 × 8]>
 9 city_09 <tibble [1,094 × 12]>    12 <dt [6 × 8]>
10 city_10 <tibble [1,095 × 12]>    12 <dt [6 × 8]>
# ℹ 11 more rows
…
