环境暴露的人群健康效应的研究、写作与发表 - 横截面研究
…
Cai, M., Lin, X., Wang, X., Zhang, S., Wang, C., Zhang, Z., Pan, J., Lin, H. (2023). Long-term exposure to ambient fine particulate matter chemical composition and in-hospital case fatality among patients with stroke in China. The Lancet Regional Health-Western Pacific (IF=8.6), 100679. PDF 

R语言代码实战

逻辑回归

pacman::p_load(
  arrow, dplyr, ggplot2, data.table, broom, splines, purrr)

cs_pm = arrow::read_parquet(
  'Data/cs_synthetic_pm_components.parquet')
cs_pm

# A tibble: 50,000 × 19
   Province inhosp…¹   age sex   ethni…² occup…³ marri…⁴ strok…⁵ hospi…⁶ hyper…⁷
   <chr>       <dbl> <dbl> <chr> <chr>   <chr>   <chr>   <chr>   <chr>     <dbl>
 1 Sichuan         0  74.1 Male  Han     Farmer  Married Ischem… Non-Te…       1
 2 Guangxi         0  81.4 Male  Han     Farmer  Married Hemorr… Non-Te…       0
 3 Guangxi         1  72.6 Male  Han     Farmer  Married Ischem… Non-Te…       0
 4 Shanxi          0  72.1 Fema… Han     Retired Married Ischem… Non-Te…       0
 5 Sichuan         0  51.0 Male  Han     Farmer  Married Ischem… Non-Te…       0
 6 Shanxi          0  81.9 Male  Han     Farmer  Married Ischem… Non-Te…       1
 7 Shanxi          0  66.4 Fema… Han     Retired Married Ischem… Tertia…       0
 8 Sichuan         0  49.1 Fema… Han     Farmer  Married Ischem… Non-Te…       0
 9 Guangxi         0  59.4 Male  Han     Farmer  Married Hemorr… Non-Te…       0
10 Sichuan         0  66.2 Male  Han     Farmer  Married Hemorr… Tertia…       1
# … with 49,990 more rows, 9 more variables: diabetes <dbl>,
#   Temperature_MA_07 <dbl>, RH_MA_07 <dbl>, PM2.5_MA_365 <dbl>,
#   SO4_MA_365 <dbl>, NO3_MA_365 <dbl>, NH4_MA_365 <dbl>, OM_MA_365 <dbl>,
#   BC_MA_365 <dbl>, and abbreviated variable names ¹​inhosp_death, ²​ethnicity,
#   ³​occupation, ⁴​marriage, ⁵​stroke_subtype, ⁶​hospital_level, ⁷​hypertension
…
