环境暴露的人群健康效应的研究、写作与发表 - 队列研究
…
Likelihood ratio test=34.99  on 22 df, p=0.03881
n= 8262, number of events= 2474 

# 提取结果成数据框，方便导出excel
fit0 %>% 
  tidy()

# A tibble: 22 × 5
   term                          estimate std.error statistic p.value
   <chr>                            <dbl>     <dbl>     <dbl>   <dbl>
 1 PM1_MA_365                     0.0111    0.00390     2.83  0.00462
 2 age                           -0.00132   0.00219    -0.604 0.546  
 3 ethnicityNon-han              -0.0582    0.201      -0.289 0.772  
 4 marriageUnmarried              0.187     0.104       1.79  0.0730 
 5 marriageWidowed                0.0385    0.0965      0.399 0.690  
 6 marriageDivorced               0.207     0.160       1.30  0.194  
 7 marriageOther                 -0.119     0.158      -0.750 0.453  
 8 occupationPrivate institution -0.135     0.152      -0.888 0.374  
 9 occupationFarmer              -0.101     0.129      -0.785 0.432  
10 occupationJobless             -0.150     0.178      -0.843 0.399  
# ℹ 12 more rows

# 提取结果为exp后的HR值，而非线性项的值
fit0 %>% 
  tidy(exponentiate = TRUE)

# A tibble: 22 × 5
   term                          estimate std.error statistic p.value
   <chr>                            <dbl>     <dbl>     <dbl>   <dbl>
 1 PM1_MA_365                       1.01    0.00390     2.83  0.00462
 2 age                              0.999   0.00219    -0.604 0.546  
 3 ethnicityNon-han                 0.943   0.201      -0.289 0.772  
 4 marriageUnmarried                1.21    0.104       1.79  0.0730 
 5 marriageWidowed                  1.04    0.0965      0.399 0.690  
 6 marriageDivorced                 1.23    0.160       1.30  0.194  
 7 marriageOther                    0.888   0.158      -0.750 0.453  
 8 occupationPrivate institution    0.874   0.152      -0.888 0.374  
 9 occupationFarmer                 0.904   0.129      -0.785 0.432  
10 occupationJobless                0.861   0.178      -0.843 0.399  
# ℹ 12 more rows

# 提取结果为exp后的HR值，而非线性项的值
fit0 %>% 
  tidy(exponentiate = TRUE, conf.int = T, conf.level = 0.95)

# A tibble: 22 × 7
   term                  estimate std.error statistic p.value conf.low conf.high
   <chr>                    <dbl>     <dbl>     <dbl>   <dbl>    <dbl>     <dbl>
 1 PM1_MA_365               1.01    0.00390     2.83  0.00462    1.00       1.02
 2 age                      0.999   0.00219    -0.604 0.546      0.994      1.00
 3 ethnicityNon-han         0.943   0.201      -0.289 0.772      0.636      1.40
 4 marriageUnmarried        1.21    0.104       1.79  0.0730     0.983      1.48
 5 marriageWidowed          1.04    0.0965      0.399 0.690      0.860      1.26
 6 marriageDivorced         1.23    0.160       1.30  0.194      0.900      1.68
 7 marriageOther            0.888   0.158      -0.750 0.453      0.651      1.21
 8 occupationPrivate in…    0.874   0.152      -0.888 0.374      0.649      1.18
 9 occupationFarmer         0.904   0.129      -0.785 0.432      0.702      1.16
10 occupationJobless        0.861   0.178      -0.843 0.399      0.608      1.22
# ℹ 12 more rows
…
